{
  "database": {
    "sqlUrl": "jdbc:mysql://127.0.0.1:3306/idde?autoReconnect=true&useSSL=false",
    "driver": "com.mysql.jdbc.Driver",
    "username": "root",
    "password": "AdiAdiAdi",
    "poolSize": 5
  },
  "profile": "Database"
}